make[3]: *** [misc/test-custom-opts.log] Error 255
  GEN      src/alloc-tests.log
  ELC      src/buffer-tests.elc
  GEN      src/buffer-tests.log
  ELC      src/callint-tests.elc
  GEN      src/callint-tests.log
  ELC      src/callproc-tests.elc
  GEN      src/callproc-tests.log
  ELC      src/casefiddle-tests.elc
  GEN      src/casefiddle-tests.log
  ELC      src/character-tests.elc
  GEN      src/character-tests.log
  ELC      src/charset-tests.elc
  GEN      src/charset-tests.log
  ELC      src/chartab-tests.elc
  GEN      src/chartab-tests.log
  ELC      src/cmds-tests.elc
  GEN      src/cmds-tests.log
  ELC      src/coding-tests.elc
  GEN      src/coding-tests.log
  ELC      src/comp-tests.elc
  GEN      src/comp-tests.log
  ELC      src/data-tests.elc
  GEN      src/data-tests.log
  ELC      src/decompress-tests.elc
  GEN      src/decompress-tests.log
  ELC      src/doc-tests.elc
  GEN      src/doc-tests.log
  ELC      src/editfns-tests.elc
  GEN      src/editfns-tests.log
  CCLD     src/emacs-module-resources/mod-test.so
  ELC      src/emacs-module-tests.elc
  GEN      src/emacs-module-tests.log
Running 34 tests (2022-09-14 17:22:59+0000, selector `(not (or (tag :unstable) (tag :nativecomp)))')
   passed   1/34  emacs-module-tests/interleaved-threads (0.002048 sec)
   passed   2/34  mod-test-add-nanosecond/invalid (0.000262 sec)
   passed   3/34  mod-test-add-nanosecond/nil (0.000117 sec)
   passed   4/34  mod-test-add-nanosecond/valid (0.000984 sec)
   passed   5/34  mod-test-double (0.000777 sec)
   passed   6/34  mod-test-globref-free-test (0.000114 sec)
   passed   7/34  mod-test-globref-make-test (0.025668 sec)
   passed   8/34  mod-test-globref-reordered (0.000124 sec)
   passed   9/34  mod-test-make-string/empty (0.000146 sec)
   passed  10/34  mod-test-make-string/nonempty (0.000162 sec)
   passed  11/34  mod-test-nanoseconds (0.000788 sec)
   passed  12/34  mod-test-non-local-exit-funcall-normal (0.000097 sec)
   passed  13/34  mod-test-non-local-exit-funcall-signal (0.000159 sec)
   passed  14/34  mod-test-non-local-exit-funcall-throw (0.000160 sec)
   passed  15/34  mod-test-non-local-exit-signal-test (0.131393 sec)
   passed  16/34  mod-test-non-local-exit-throw-test (0.000106 sec)
   passed  17/34  mod-test-sleep-until (0.205302 sec)
   passed  18/34  mod-test-string-a-to-b-test (0.000129 sec)
   passed  19/34  mod-test-sum-docstring (0.000304 sec)
   passed  20/34  mod-test-sum-test (0.001337 sec)
   passed  21/34  mod-test-userptr-fun-test (0.000353 sec)
   passed  22/34  mod-test-vector-test (0.009559 sec)
   passed  23/34  module--func-arity (0.000120 sec)
   passed  24/34  module--help-function-arglist (0.000475 sec)
  skipped  25/34  module-darwin-secondary-suffix (0.000484 sec)
   passed  26/34  module-function-object (0.000460 sec)
   passed  27/34  module/async-pipe (0.501480 sec)
   passed  28/34  module/describe-function-1 (0.111670 sec)
   passed  29/34  module/function-finalizer (0.028224 sec)
   passed  30/34  module/interactive/identity (0.000175 sec)
   passed  31/34  module/interactive/return-t (0.000369 sec)
   passed  32/34  module/interactive/return-t-int (0.000299 sec)
Loading /checkout/test/src/emacs-module-resources/mod-test (module)...
   passed  33/34  module/load-history (0.005474 sec)
   passed  34/34  module/unibyte (0.000172 sec)

Ran 34 tests, 33 results as expected, 0 unexpected, 1 skipped (2022-09-14 17:23:00+0000, 1.035417 sec)

1 skipped results:
  SKIPPED  module-darwin-secondary-suffix  ((skip-unless (eq system-type 'darwin)) :form (eq gnu/linux darwin) :value nil)

  ELC      src/emacs-tests.elc
  GEN      src/emacs-tests.log
  ELC      src/eval-tests.elc
  GEN      src/eval-tests.log
  ELC      src/fileio-tests.elc
  GEN      src/fileio-tests.log
  ELC      src/filelock-tests.elc
  GEN      src/filelock-tests.log
  ELC      src/floatfns-tests.elc
  GEN      src/floatfns-tests.log
  ELC      src/fns-tests.elc
  GEN      src/fns-tests.log
  ELC      src/font-tests.elc
  GEN      src/font-tests.log
  ELC      src/image-tests.elc

In end of data:
src/image-tests.el:52:18: Warning: the function `image-metadata' is not known to be defined.
src/image-tests.el:48:18: Warning: the function `image-mask-p' is not known to be defined.
src/image-tests.el:44:18: Warning: the function `image-size' is not known to be defined.
  GEN      src/image-tests.log
  ELC      src/indent-tests.elc
  GEN      src/indent-tests.log
  ELC      src/inotify-tests.elc
  GEN      src/inotify-tests.log
  ELC      src/json-tests.elc
  GEN      src/json-tests.log
  ELC      src/keyboard-tests.elc
  GEN      src/keyboard-tests.log
  ELC      src/keymap-tests.elc
  GEN      src/keymap-tests.log
  ELC      src/lcms-tests.elc
  GEN      src/lcms-tests.log
  ELC      src/lread-tests.elc
  GEN      src/lread-tests.log
  ELC      src/marker-tests.elc
  GEN      src/marker-tests.log
  ELC      src/minibuf-tests.elc
  GEN      src/minibuf-tests.log
  ELC      src/print-tests.elc
  GEN      src/print-tests.log
  ELC      src/process-tests.elc
  GEN      src/process-tests.log
  ELC      src/regex-emacs-tests.elc
  GEN      src/regex-emacs-tests.log
  ELC      src/search-tests.elc
  GEN      src/search-tests.log
  ELC      src/sqlite-tests.elc
  GEN      src/sqlite-tests.log
  ELC      src/syntax-tests.elc
  GEN      src/syntax-tests.log
  ELC      src/textprop-tests.elc
  GEN      src/textprop-tests.log
  ELC      src/thread-tests.elc
  GEN      src/thread-tests.log
  ELC      src/timefns-tests.elc
  GEN      src/timefns-tests.log
  ELC      src/undo-tests.elc
  GEN      src/undo-tests.log
  ELC      src/xdisp-tests.elc
  GEN      src/xdisp-tests.log
  ELC      src/xfaces-tests.elc
  GEN      src/xfaces-tests.log
  ELC      src/xml-tests.elc
  GEN      src/xml-tests.log
make[3]: Leaving directory '/checkout/test'
Makefile:333: recipe for target 'check-doit' failed
make[2]: [check-doit] Error 2 (ignored)

SUMMARY OF TEST RESULTS
-----------------------
Files examined: 446
Ran 6624 tests, 1 failed to run, 6384 results as expected, 0 unexpected, 240 skipped
1 files did not finish:
  misc/test-custom-opts.log
Contents of unfinished file misc/test-custom-opts.log:
-----
Running 1 tests (2022-09-14 17:22:20+0000, selector `(not (or (tag :unstable) (tag :nativecomp)))')
Loading /checkout/admin/cus-test.el (source)...
Running cus-test-load-libs
Finding files...
Finding files...done
Package iswitchb is deprecated
ad-handle-definition: `xref-find-definitions' got redefined
ad-handle-definition: `visit-tags-table' got redefined
ad-handle-definition: `xref-find-definitions' got redefined
ad-handle-definition: `pop-to-mark-command' got redefined
ad-handle-definition: `exchange-point-and-mark' got redefined
ad-handle-definition: `pop-global-mark' got redefined
Error for term/ns-win.el: (error emacs: Loading ns-win.el but not compiled for GNUstep/macOS)
Error for term/pgtk-win.el: (error emacs: Loading pgtk-win.el but not compiled with PGTK.)
Error for term/x-win.el: (error emacs: Loading x-win.el but not compiled for X)
774 libraries loaded successfully
The following load problems appeared:
(term/x-win.el error emacs: Loading x-win.el but not compiled for X)
(term/pgtk-win.el error emacs: Loading pgtk-win.el but not compiled with PGTK.)
(term/ns-win.el error emacs: Loading ns-win.el but not compiled for GNUstep/macOS)
Running cus-test-load-custom-loads
Loading display-fill-column-indicator...
Loading subword...
Loading t-mouse...
Loading cl-font-lock...
Running cus-test-apropos
Cus Test running...1 route-program
Cus Test running...2 pong-bat-color
Cus Test running...3 erc-nickserv-passwords
Cus Test running...4 find-sibling-rules
Cus Test running...5 cal-tex-daily-end
Cus Test running...6 eshell-mv-interactive-query
Cus Test running...7 url-nfs-automounter-directory-spec
Cus Test running...8 compilation-disable-input
Cus Test running...9 hs-hide-comments-when-hiding-all
Cus Test running...10 vhdl-compose-configuration-create-file
Cus Test running...11 erc-stamp-mode
Cus Test running...12 erc-networks-mode
Cus Test running...13 message-expand-name-databases
Cus Test running...14 spam-blacklist
Cus Test running...15 browse-url-gnome-moz-arguments
Cus Test running...16 erc-track-showcount
Cus Test running...17 spam-blacklist-ignored-regexes
Cus Test running...18 allout-post-undo-hook
Cus Test running...19 timeclock-get-reason-function
Cus Test running...20 browse-url-generic-args
Cus Test running...9046 fortran-comment-indent-char
Cus Test running...9047 language-info-custom-alist
Cus Test running...9048 lm-any-header
Cus Test running...9049 fortune-strfile
Cus Test running...9050 eshell-subcommand-bindings
Cus Test running...9051 org-texinfo-format-drawer-function
Cus Test running...9052 gnus-search-ignored-newsgroups
Cus Test running...9053 gnus-ignored-from-addresses
Cus Test running...9054 ps-mode-paper-size
Cus Test running...9055 vhdl-prompt-for-comments
Cus Test running...9056 vc-sccs-master-templates
Cus Test running...9057 vhdl-print-customize-faces
Cus Test running...9058 desktop-clear-preserve-buffers
Cus Test running...9059 gnus-search-notmuch-remove-prefix
9059 options tested
The following options might have problems:
wallpaper-command
Debugger entered--Lisp error: (ert-test-failed ((should (null (cus-test-opts t))) :form (null (wallpaper-command)) :value nil))
  signal(ert-test-failed (((should (null (cus-test-opts t))) :form (null (wallpaper-command)) :value nil)))
  ert-fail(((should (null (cus-test-opts t))) :form (null (wallpaper-command)) :value nil))
  (if (unwind-protect (setq value-7 (apply fn-5 args-6)) (setq form-description-9 (nconc (list '(should (null ...))) (list :form (cons fn-5 args-6)) (if (eql value-7 'ert-form-evaluation-aborted-8) nil (list :value value-7)) (if (eql value-7 'ert-form-evaluation-aborted-8) nil (let* ((-explainer- ...)) (if -explainer- (list :explanation ...) nil))))) (ert--signal-should-execution form-description-9)) nil (ert-fail form-description-9))
  (let (form-description-9) (if (unwind-protect (setq value-7 (apply fn-5 args-6)) (setq form-description-9 (nconc (list '(should ...)) (list :form (cons fn-5 args-6)) (if (eql value-7 'ert-form-evaluation-aborted-8) nil (list :value value-7)) (if (eql value-7 'ert-form-evaluation-aborted-8) nil (let* (...) (if -explainer- ... nil))))) (ert--signal-should-execution form-description-9)) nil (ert-fail form-description-9)))
  (let ((value-7 'ert-form-evaluation-aborted-8)) (let (form-description-9) (if (unwind-protect (setq value-7 (apply fn-5 args-6)) (setq form-description-9 (nconc (list '...) (list :form (cons fn-5 args-6)) (if (eql value-7 ...) nil (list :value value-7)) (if (eql value-7 ...) nil (let* ... ...)))) (ert--signal-should-execution form-description-9)) nil (ert-fail form-description-9))) value-7)
  (let* ((fn-5 #'null) (args-6 (condition-case err (let ((signal-hook-function #'ert--should-signal-hook)) (list (cus-test-opts t))) (error (progn (setq fn-5 #'signal) (list (car err) (cdr err))))))) (let ((value-7 'ert-form-evaluation-aborted-8)) (let (form-description-9) (if (unwind-protect (setq value-7 (apply fn-5 args-6)) (setq form-description-9 (nconc (list ...) (list :form ...) (if ... nil ...) (if ... nil ...))) (ert--signal-should-execution form-description-9)) nil (ert-fail form-description-9))) value-7))
  (closure (t) nil (let* ((fn-0 #'file-readable-p) (args-1 (condition-case err (let ((signal-hook-function ...)) (list custom-test-admin-cus-test)) (error (progn (setq fn-0 ...) (list ... ...)))))) (let ((value-2 'ert-form-evaluation-aborted-3)) (let (form-description-4) (if (condition-case nil (progn (unwind-protect ... ... ...)) (error nil)) nil (ert-skip form-description-4))) value-2)) (load custom-test-admin-cus-test) (let* ((fn-5 #'null) (args-6 (condition-case err (let ((signal-hook-function ...)) (list (cus-test-opts t))) (error (progn (setq fn-5 ...) (list ... ...)))))) (let ((value-7 'ert-form-evaluation-aborted-8)) (let (form-description-9) (if (unwind-protect (setq value-7 (apply fn-5 args-6)) (setq form-description-9 (nconc ... ... ... ...)) (ert--signal-should-execution form-description-9)) nil (ert-fail form-description-9))) value-7)))()
  ert--run-test-internal(#s(ert--test-execution-info :test #s(ert-test :name check-for-wrong-custom-opts :documentation nil :body (closure (t) nil (let* ((fn-0 #'file-readable-p) (args-1 (condition-case err ... ...))) (let ((value-2 ...)) (let (form-description-4) (if ... nil ...)) value-2)) (load custom-test-admin-cus-test) (let* ((fn-5 #'null) (args-6 (condition-case err ... ...))) (let ((value-7 ...)) (let (form-description-9) (if ... nil ...)) value-7))) :most-recent-result nil :expected-result-type :passed :tags (:expensive-test) :file-name "/checkout/test/misc/test-custom-opts.el") :result #s(ert-test-aborted-with-non-local-exit :messages nil :should-forms nil :duration 0) :exit-continuation #f(compiled-function () #<bytecode 0xa01d179398a2c3>) :next-debugger debug :ert-debug-on-error nil))
  ert-run-test(#s(ert-test :name check-for-wrong-custom-opts :documentation nil :body (closure (t) nil (let* ((fn-0 #'file-readable-p) (args-1 (condition-case err (let ... ...) (error ...)))) (let ((value-2 'ert-form-evaluation-aborted-3)) (let (form-description-4) (if (condition-case nil ... ...) nil (ert-skip form-description-4))) value-2)) (load custom-test-admin-cus-test) (let* ((fn-5 #'null) (args-6 (condition-case err (let ... ...) (error ...)))) (let ((value-7 'ert-form-evaluation-aborted-8)) (let (form-description-9) (if (unwind-protect ... ... ...) nil (ert-fail form-description-9))) value-7))) :most-recent-result nil :expected-result-type :passed :tags (:expensive-test) :file-name "/checkout/test/misc/test-custom-opts.el"))
  ert-run-or-rerun-test(#s(ert--stats :selector (not (or (tag :unstable) (tag :nativecomp))) :tests [#s(ert-test :name check-for-wrong-custom-opts :documentation nil :body (closure (t) nil (let* ((fn-0 ...) (args-1 ...)) (let (...) (let ... ...) value-2)) (load custom-test-admin-cus-test) (let* ((fn-5 ...) (args-6 ...)) (let (...) (let ... ...) value-7))) :most-recent-result nil :expected-result-type :passed :tags (:expensive-test) :file-name "/checkout/test/misc/test-custom-opts.el")] :test-map #<hash-table eql 1/1 0x15555584ed7b> :test-results [nil] :test-start-times [(25378 3532 41705 502000)] :test-end-times [nil] :passed-expected 0 :passed-unexpected 0 :failed-expected 0 :failed-unexpected 0 :skipped 0 :start-time (25378 3532 41433 357000) :end-time nil :aborted-p nil :current-test #s(ert-test :name check-for-wrong-custom-opts :documentation nil :body (closure (t) nil (let* ((fn-0 #'file-readable-p) (args-1 (condition-case err ... ...))) (let ((value-2 ...)) (let (form-description-4) (if ... nil ...)) value-2)) (load custom-test-admin-cus-test) (let* ((fn-5 #'null) (args-6 (condition-case err ... ...))) (let ((value-7 ...)) (let (form-description-9) (if ... nil ...)) value-7))) :most-recent-result nil :expected-result-type :passed :tags (:expensive-test) :file-name "/checkout/test/misc/test-custom-opts.el") :next-redisplay 0.0) #s(ert-test :name check-for-wrong-custom-opts :documentation nil :body (closure (t) nil (let* ((fn-0 #'file-readable-p) (args-1 (condition-case err (let ... ...) (error ...)))) (let ((value-2 'ert-form-evaluation-aborted-3)) (let (form-description-4) (if (condition-case nil ... ...) nil (ert-skip form-description-4))) value-2)) (load custom-test-admin-cus-test) (let* ((fn-5 #'null) (args-6 (condition-case err (let ... ...) (error ...)))) (let ((value-7 'ert-form-evaluation-aborted-8)) (let (form-description-9) (if (unwind-protect ... ... ...) nil (ert-fail form-description-9))) value-7))) :most-recent-result nil :expected-result-type :passed :tags (:expensive-test) :file-name "/checkout/test/misc/test-custom-opts.el") #f(compiled-function (event-type &rest event-args) #<bytecode -0x1054f11b3952388f>))
  ert-run-tests((not (or (tag :unstable) (tag :nativecomp))) #f(compiled-function (event-type &rest event-args) #<bytecode -0x1054f11b3952388f>) nil)
  ert-run-tests-batch((not (or (tag :unstable) (tag :nativecomp))))
  ert-run-tests-batch-and-exit((not (or (tag :unstable) (tag :nativecomp))))
  eval((ert-run-tests-batch-and-exit '(not (or (tag :unstable) (tag :nativecomp)))) t)
  command-line-1(("-L" ":." "-l" "ert" "-l" "misc/test-custom-opts.el" "--eval" "(ert-run-tests-batch-and-exit (quote (not (or (tag..."))
  command-line()
  normal-top-level()


-----

DETAILS
-------
src/xml-tests.log:
  SKIPPED  libxml-tests  ((skip-unless (fboundp 'libxml-parse-xml-region)) :form (fboundp libxml-parse-xml-region) :value nil)
src/sqlite-tests.log:
  SKIPPED  sqlite-binary  ((skip-unless (sqlite-available-p)) :form (sqlite-available-p) :value nil)
  SKIPPED  sqlite-blob  ((skip-unless (sqlite-available-p)) :form (sqlite-available-p) :value nil)
  SKIPPED  sqlite-chars  ((skip-unless (sqlite-available-p)) :form (sqlite-available-p) :value nil)
  SKIPPED  sqlite-close-dbs  ((skip-unless (sqlite-available-p)) :form (sqlite-available-p) :value nil)
  SKIPPED  sqlite-different-dbs  ((skip-unless (sqlite-available-p)) :form (sqlite-available-p) :value nil)
  SKIPPED  sqlite-load-extension  ((skip-unless (sqlite-available-p)) :form (sqlite-available-p) :value nil)
  SKIPPED  sqlite-numbers  ((skip-unless (sqlite-available-p)) :form (sqlite-available-p) :value nil)
  SKIPPED  sqlite-param  ((skip-unless (sqlite-available-p)) :form (sqlite-available-p) :value nil)
  SKIPPED  sqlite-select  ((skip-unless (sqlite-available-p)) :form (sqlite-available-p) :value nil)
  SKIPPED  sqlite-set  ((skip-unless (sqlite-available-p)) :form (sqlite-available-p) :value nil)
src/process-tests.log:
  SKIPPED  lookup-family-specification  ((skip-unless internet-is-working) :form internet-is-working :value nil)
  SKIPPED  lookup-google  ((skip-unless internet-is-working) :form internet-is-working :value nil)
  SKIPPED  lookup-unicode-domains  ((skip-unless internet-is-working) :form internet-is-working :value nil)
  SKIPPED  make-process-w32-debug-spawn-error  ((skip-unless (eq system-type 'windows-nt)) :form (eq gnu/linux windows-nt) :value nil)
  SKIPPED  non-existent-lookup-failure  ((skip-unless internet-is-working) :form internet-is-working :value nil)
  SKIPPED  process-sentinel-interrupt-event  ((skip-unless (eq system-type 'windows-nt)) :form (eq gnu/linux windows-nt) :value nil)
  SKIPPED  unibyte-domain-name  ((skip-unless internet-is-working) :form internet-is-working :value nil)
src/lcms-tests.log:
  SKIPPED  lcms-ciecam02-gold  ((skip-unless (featurep 'lcms2)) :form (featurep lcms2) :value nil)
  SKIPPED  lcms-cri-cam02-ucs  ((skip-unless (featurep 'lcms2)) :form (featurep lcms2) :value nil)
  SKIPPED  lcms-dE-cam02-ucs-silver  ((skip-unless (featurep 'lcms2)) :form (featurep lcms2) :value nil)
  SKIPPED  lcms-jmh->cam02-ucs-silver  ((skip-unless (featurep 'lcms2)) :form (featurep lcms2) :value nil)
  SKIPPED  lcms-roundtrip  ((skip-unless (featurep 'lcms2)) :form (featurep lcms2) :value nil)
  SKIPPED  lcms-whitepoint  ((skip-unless (featurep 'lcms2)) :form (featurep lcms2) :value nil)
src/json-tests.log:
  SKIPPED  json-insert/signal  ((skip-unless (fboundp 'json-insert)) :form (fboundp json-insert) :value nil)
  SKIPPED  json-insert/throw  ((skip-unless (fboundp 'json-insert)) :form (fboundp json-insert) :value nil)
  SKIPPED  json-parse-buffer/incomplete  ((skip-unless (fboundp 'json-parse-buffer)) :form (fboundp json-parse-buffer) :value nil)
  SKIPPED  json-parse-buffer/trailing  ((skip-unless (fboundp 'json-parse-buffer)) :form (fboundp json-parse-buffer) :value nil)
  SKIPPED  json-parse-string/array  ((skip-unless (fboundp 'json-parse-string)) :form (fboundp json-parse-string) :value nil)
  SKIPPED  json-parse-string/incomplete  ((skip-unless (fboundp 'json-parse-string)) :form (fboundp json-parse-string) :value nil)
  SKIPPED  json-parse-string/invalid-unicode  ((skip-unless (fboundp 'json-parse-string)) :form (fboundp json-parse-string) :value nil)
  SKIPPED  json-parse-string/null  ((skip-unless (fboundp 'json-parse-string)) :form (fboundp json-parse-string) :value nil)
  SKIPPED  json-parse-string/object  ((skip-unless (fboundp 'json-parse-string)) :form (fboundp json-parse-string) :value nil)
  SKIPPED  json-parse-string/string  ((skip-unless (fboundp 'json-parse-string)) :form (fboundp json-parse-string) :value nil)
  SKIPPED  json-parse-string/trailing  ((skip-unless (fboundp 'json-parse-string)) :form (fboundp json-parse-string) :value nil)
  SKIPPED  json-parse-string/wrong-type  ((skip-unless (fboundp 'json-parse-string)) :form (fboundp json-parse-string) :value nil)
  SKIPPED  json-parse-with-custom-null-and-false-objects  ((skip-unless (and (fboundp 'json-serialize) (fboundp 'json-parse-string))) :form (and (fboundp 'json-serialize) (fboundp 'json-parse-string)) :value nil)
  SKIPPED  json-serialize/bignum  ((skip-unless (fboundp 'json-serialize)) :form (fboundp json-serialize) :value nil)
  SKIPPED  json-serialize/invalid-unicode  ((skip-unless (fboundp 'json-serialize)) :form (fboundp json-serialize) :value nil)
  SKIPPED  json-serialize/object  ((skip-unless (fboundp 'json-serialize)) :form (fboundp json-serialize) :value nil)
  SKIPPED  json-serialize/object-with-duplicate-keys  ((skip-unless (fboundp 'json-serialize)) :form (fboundp json-serialize) :value nil)
  SKIPPED  json-serialize/roundtrip  ((skip-unless (fboundp 'json-serialize)) :form (fboundp json-serialize) :value nil)
  SKIPPED  json-serialize/roundtrip-scalars  ((skip-unless (fboundp 'json-serialize)) :form (fboundp json-serialize) :value nil)
  SKIPPED  json-serialize/string  ((skip-unless (fboundp 'json-serialize)) :form (fboundp json-serialize) :value nil)
  SKIPPED  json-serialize/wrong-hash-key-type  ((skip-unless (fboundp 'json-serialize)) :form (fboundp json-serialize) :value nil)
src/image-tests.log:
  SKIPPED  image-tests-imagemagick-types  ((skip-unless (fboundp 'imagemagick-types)) :form (fboundp imagemagick-types) :value nil)
  SKIPPED  image-tests-init-image-library  ((skip-unless (fboundp 'init-image-library)) :form (fboundp init-image-library) :value nil)
src/fns-tests.log:
  SKIPPED  fns-tests-collate-sort  ((skip-unless (fns-tests--collate-enabled-p)) :form (fns-tests--collate-enabled-p) :value nil)
  SKIPPED  fns-tests-collate-strings  ((skip-unless (fns-tests--collate-enabled-p)) :form (fns-tests--collate-enabled-p) :value nil)
src/fileio-tests.log:
  SKIPPED  fileio-tests--directory-file-name-dos-nt  ((skip-unless (memq system-type '(ms-dos windows-nt))) :form (memq gnu/linux (ms-dos windows-nt)) :value nil)
  SKIPPED  fileio-tests--file-name-as-directory-dos-nt  ((skip-unless (memq system-type '(ms-dos windows-nt))) :form (memq gnu/linux (ms-dos windows-nt)) :value nil)
src/emacs-tests.log:
  SKIPPED  emacs-tests/bwrap/allows-stdout  ((skip-unless bwrap) :form bwrap :value nil)
  SKIPPED  emacs-tests/seccomp/allows-stdout  ((skip-unless (file-readable-p filter)) :form (file-readable-p "/checkout/lib-src/seccomp-filter.bpf") :value nil)
  SKIPPED  emacs-tests/seccomp/forbids-subprocess  ((skip-unless (file-readable-p filter)) :form (file-readable-p "/checkout/lib-src/seccomp-filter.bpf") :value nil)
src/emacs-module-tests.log:
  SKIPPED  module-darwin-secondary-suffix  ((skip-unless (eq system-type 'darwin)) :form (eq gnu/linux darwin) :value nil)
src/casefiddle-tests.log:
  SKIPPED  casefiddle-turkish  ((skip-unless (member "tr_TR.utf8" (get-locale-names))) :form (member "tr_TR.utf8" ("C" "C.UTF-8" "POSIX")) :value nil)
src/callproc-tests.log:
  SKIPPED  call-process-w32-debug-spawn-error  ((skip-unless (eq system-type 'windows-nt)) :form (eq gnu/linux windows-nt) :value nil)
  SKIPPED  initial-environment-preserved  ((skip-unless (eq system-type 'windows-nt)) :form (eq gnu/linux windows-nt) :value nil)
lisp/vc/vc-bzr-tests.log:
  SKIPPED  vc-bzr-test-bug9726  ((skip-unless (executable-find vc-bzr-program)) :form (executable-find "bzr") :value nil)
  SKIPPED  vc-bzr-test-bug9781  ((skip-unless (executable-find vc-bzr-program)) :form (executable-find "bzr") :value nil)
  SKIPPED  vc-bzr-test-faulty-bzr-autoloads  ((skip-unless (executable-find vc-bzr-program)) :form (executable-find "bzr") :value nil)
lisp/vc/ediff-ptch-tests.log:
  SKIPPED  ediff-ptch-test-bug26084  ((skip-unless (executable-find ediff-patch-program)) :form (executable-find "patch") :value nil)
lisp/thread-tests.log:
  SKIPPED  thread-tests-list-threads-error-when-not-configured  ((skip-unless (not (featurep 'threads))) :form (not t) :value nil)
lisp/subr-tests.log:
  SKIPPED  shell-quote-argument-%-on-w32  ((skip-unless (and (fboundp 'w32-shell-dos-semantics) (w32-shell-dos-semantics))) :form (and (fboundp 'w32-shell-dos-semantics) (w32-shell-dos-semantics)) :value nil)
lisp/simple-tests.log:
  SKIPPED  eval-expression-print-format-large-int-echo  ((skip-unless (not noninteractive)) :form (not t) :value nil)
  SKIPPED  eval-expression-print-format-small-int-echo  ((skip-unless (not noninteractive)) :form (not t) :value nil)
  SKIPPED  eval-expression-print-format-sym-echo  ((skip-unless (not noninteractive)) :form (not t) :value nil)
lisp/progmodes/sql-tests.log:
  SKIPPED  sql-tests-buffer-naming-default  ((skip-unless (executable-find sql-sqlite-program)) :form (executable-find "sqlite") :value nil)
  SKIPPED  sql-tests-buffer-naming-existing  ((skip-unless (executable-find sql-sqlite-program)) :form (executable-find "sqlite") :value nil)
  SKIPPED  sql-tests-buffer-naming-explicit  ((skip-unless (executable-find sql-sqlite-program)) :form (executable-find "sqlite") :value nil)
  SKIPPED  sql-tests-buffer-naming-multiple  ((skip-unless (executable-find sql-sqlite-program)) :form (executable-find "sqlite") :value nil)
  SKIPPED  sql-tests-buffer-naming-universal-argument  ((skip-unless (executable-find sql-sqlite-program)) :form (executable-find "sqlite") :value nil)
lisp/progmodes/python-tests.log:
  SKIPPED  python-shell-get-process-1  ((skip-unless (executable-find python-tests-shell-interpreter)) :form (executable-find "python") :value nil)
  SKIPPED  python-shell-internal-get-or-create-process-1  ((skip-unless (executable-find python-tests-shell-interpreter)) :form (executable-find "python") :value nil)
  SKIPPED  python-shell-make-comint-1  ((skip-unless (executable-find python-tests-shell-interpreter)) :form (executable-find "python") :value nil)
  SKIPPED  python-shell-make-comint-2  ((skip-unless (executable-find python-tests-shell-interpreter)) :form (executable-find "python") :value nil)
  SKIPPED  python-shell-make-comint-3  ((skip-unless (executable-find python-tests-shell-interpreter)) :form (executable-find "python") :value nil)
  SKIPPED  python-shell-make-comint-4  ((skip-unless (executable-find python-tests-shell-interpreter)) :form (executable-find "python") :value nil)
  SKIPPED  python-shell-prompt-detect-1  ((skip-unless (executable-find python-tests-shell-interpreter)) :form (executable-find "python") :value nil)
  SKIPPED  python-shell-prompt-detect-2  ((skip-unless (executable-find python-tests-shell-interpreter)) :form (executable-find "python") :value nil)
  SKIPPED  python-shell-prompt-detect-3  ((skip-unless (executable-find python-tests-shell-interpreter)) :form (executable-find "python") :value nil)
  SKIPPED  python-shell-prompt-detect-4  ((skip-unless (executable-find python-tests-shell-interpreter)) :form (executable-find "python") :value nil)
  SKIPPED  python-shell-prompt-detect-5  ((skip-unless (executable-find python-tests-shell-interpreter)) :form (executable-find "python") :value nil)
  SKIPPED  python-shell-prompt-detect-6  ((skip-unless (executable-find python-tests-shell-interpreter)) :form (executable-find "python") :value nil)
  SKIPPED  python-shell-prompt-set-calculated-regexps-6  ((skip-unless (executable-find python-tests-shell-interpreter)) :form (executable-find "python") :value nil)
  SKIPPED  python-tests--run-python-selects-window  ((skip-unless (executable-find python-tests-shell-interpreter)) :form (executable-find "python") :value nil)
lisp/progmodes/perl-mode-tests.log:
  SKIPPED  cperl-test-bug-10483  ((skip-unless (eq cperl-test-mode #'cperl-mode)) :form (eq perl-mode cperl-mode) :value nil)
  SKIPPED  cperl-test-bug-16368  ((skip-unless (eq cperl-test-mode #'cperl-mode)) :form (eq perl-mode cperl-mode) :value nil)
  SKIPPED  cperl-test-fontify-attrs-and-signatures  ((skip-unless (eq cperl-test-mode #'cperl-mode)) :form (eq perl-mode cperl-mode) :value nil)
  SKIPPED  cperl-test-fontify-punct-vars  ((skip-unless (eq cperl-test-mode #'cperl-mode)) :form (eq perl-mode cperl-mode) :value nil)
  SKIPPED  cperl-test-fontify-special-variables  ((skip-unless (eq cperl-test-mode #'cperl-mode)) :form (eq perl-mode cperl-mode) :value nil)
  SKIPPED  cperl-test-here-doc-missing-end  ((skip-unless (eq cperl-test-mode #'cperl-mode)) :form (eq perl-mode cperl-mode) :value nil)
  SKIPPED  cperl-test-hyperactive-electric-else  ((skip-unless (eq cperl-test-mode #'cperl-mode)) :form (eq perl-mode cperl-mode) :value nil)
  SKIPPED  cperl-test-identifier-rx  ((skip-unless (eq cperl-test-mode #'cperl-mode)) :form (eq perl-mode cperl-mode) :value nil)
  SKIPPED  cperl-test-imenu-index  ((skip-unless (eq cperl-test-mode #'cperl-mode)) :form (eq perl-mode cperl-mode) :value nil)
  SKIPPED  cperl-test-indent-exp  ((skip-unless (eq cperl-test-mode #'cperl-mode)) :form (eq perl-mode cperl-mode) :value nil)
  SKIPPED  cperl-test-indent-styles  ((skip-unless (eq cperl-test-mode #'cperl-mode)) :form (eq perl-mode cperl-mode) :value nil)
  SKIPPED  cperl-test-package-regexp  ((skip-unless (eq cperl-test-mode #'cperl-mode)) :form (eq perl-mode cperl-mode) :value nil)
  SKIPPED  cperl-test-unicode-arrays  ((skip-unless (eq cperl-test-mode #'cperl-mode)) :form (eq perl-mode cperl-mode) :value nil)
  SKIPPED  cperl-test-unicode-hashes  ((skip-unless (eq cperl-test-mode #'cperl-mode)) :form (eq perl-mode cperl-mode) :value nil)
  SKIPPED  cperl-test-unicode-hashkeys  ((skip-unless (eq cperl-test-mode #'cperl-mode)) :form (eq perl-mode cperl-mode) :value nil)
  SKIPPED  cperl-test-unicode-hashref  ((skip-unless (eq cperl-test-mode #'cperl-mode)) :form (eq perl-mode cperl-mode) :value nil)
  SKIPPED  cperl-test-unicode-proto  ((skip-unless (eq cperl-test-mode #'cperl-mode)) :form (eq perl-mode cperl-mode) :value nil)
  SKIPPED  cperl-test-version-regexp  ((skip-unless (eq cperl-test-mode #'cperl-mode)) :form (eq perl-mode cperl-mode) :value nil)
  SKIPPED  cperl-test-word-at-point  ((skip-unless (eq cperl-test-mode #'cperl-mode)) :form (eq perl-mode cperl-mode) :value nil)
  SKIPPED  cperl-test-ws+-rx  ((skip-unless (eq cperl-test-mode #'cperl-mode)) :form (eq perl-mode cperl-mode) :value nil)
  SKIPPED  cperl-test-ws-rx  ((skip-unless (eq cperl-test-mode #'cperl-mode)) :form (eq perl-mode cperl-mode) :value nil)
lisp/progmodes/flymake-tests.log:
  SKIPPED  ruby-backend  ((skip-unless (executable-find "ruby")) :form (executable-find "ruby") :value nil)
lisp/progmodes/elisp-mode-tests.log:
  SKIPPED  eval-defun-prints-edebug-when-instrumented  ((skip-unless (not noninteractive)) :form (not t) :value nil)
  SKIPPED  eval-last-sexp-print-format-large-int-echo  ((skip-unless (not noninteractive)) :form (not t) :value nil)
  SKIPPED  eval-last-sexp-print-format-small-int-echo  ((skip-unless (not noninteractive)) :form (not t) :value nil)
  SKIPPED  eval-last-sexp-print-format-sym-echo  ((skip-unless (not noninteractive)) :form (not t) :value nil)
lisp/play/fortune-tests.log:
  SKIPPED  test-fortune  ((skip-unless (executable-find "fortune")) :form (executable-find "fortune") :value nil)
lisp/net/tramp-archive-tests.log:
  SKIPPED  tramp-archive-test02-file-name-dissect  ((skip-unless tramp-archive-enabled) :form tramp-archive-enabled :value nil)
  SKIPPED  tramp-archive-test06-directory-file-name  ((skip-unless tramp-archive-enabled) :form tramp-archive-enabled :value nil)
  SKIPPED  tramp-archive-test07-file-exists-p  ((skip-unless tramp-archive-enabled) :form tramp-archive-enabled :value nil)
  SKIPPED  tramp-archive-test08-file-local-copy  ((skip-unless tramp-archive-enabled) :form tramp-archive-enabled :value nil)
  SKIPPED  tramp-archive-test09-insert-file-contents  ((skip-unless tramp-archive-enabled) :form tramp-archive-enabled :value nil)
  SKIPPED  tramp-archive-test11-copy-file  ((skip-unless tramp-archive-enabled) :form tramp-archive-enabled :value nil)
  SKIPPED  tramp-archive-test15-copy-directory  ((skip-unless tramp-archive-enabled) :form tramp-archive-enabled :value nil)
  SKIPPED  tramp-archive-test16-directory-files  ((skip-unless tramp-archive-enabled) :form tramp-archive-enabled :value nil)
  SKIPPED  tramp-archive-test17-insert-directory  ((skip-unless tramp-archive-enabled) :form tramp-archive-enabled :value nil)
  SKIPPED  tramp-archive-test18-file-attributes  ((skip-unless tramp-archive-enabled) :form tramp-archive-enabled :value nil)
  SKIPPED  tramp-archive-test19-directory-files-and-attributes  ((skip-unless tramp-archive-enabled) :form tramp-archive-enabled :value nil)
  SKIPPED  tramp-archive-test20-file-modes  ((skip-unless tramp-archive-enabled) :form tramp-archive-enabled :value nil)
  SKIPPED  tramp-archive-test21-file-links  ((skip-unless tramp-archive-enabled) :form tramp-archive-enabled :value nil)
  SKIPPED  tramp-archive-test26-file-name-completion  ((skip-unless tramp-archive-enabled) :form tramp-archive-enabled :value nil)
  SKIPPED  tramp-archive-test40-make-nearby-temp-file  ((skip-unless tramp-archive-enabled) :form tramp-archive-enabled :value nil)
  SKIPPED  tramp-archive-test43-file-system-info  ((skip-unless tramp-archive-enabled) :form tramp-archive-enabled :value nil)
  SKIPPED  tramp-archive-test47-auto-load  ((skip-unless tramp-archive-enabled) :form tramp-archive-enabled :value nil)
  SKIPPED  tramp-archive-test47-delay-load  ((skip-unless tramp-archive-enabled) :form tramp-archive-enabled :value nil)
lisp/net/shr-tests.log:
  SKIPPED  rendering  ((skip-unless (fboundp 'libxml-parse-html-region)) :form (fboundp libxml-parse-html-region) :value nil)
lisp/net/secrets-tests.log:
  SKIPPED  secrets-test01-sessions  ((skip-unless secrets-enabled) :form secrets-enabled :value nil)
  SKIPPED  secrets-test02-collections  ((skip-unless secrets-enabled) :form secrets-enabled :value nil)
  SKIPPED  secrets-test03-items  ((skip-unless secrets-enabled) :form secrets-enabled :value nil)
  SKIPPED  secrets-test04-search  ((skip-unless secrets-enabled) :form secrets-enabled :value nil)
lisp/net/ntlm-tests.log:
  SKIPPED  ntlm-authentication  ((skip-unless ntlm-tests--dependencies-present) :form ntlm-tests--dependencies-present :value nil)
  SKIPPED  ntlm-authentication-old-compatibility-level  ((skip-unless ntlm-tests--dependencies-present) :form ntlm-tests--dependencies-present :value nil)
lisp/net/nsm-tests.log:
  SKIPPED  nsm-check-local-subnet-ipv6  ((skip-unless (ipv6-is-available)) :form (ipv6-is-available) :value nil)
lisp/net/network-stream-tests.log:
  SKIPPED  connect-to-tls-ipv4-nowait  ((skip-unless (executable-find "gnutls-serv")) :form (executable-find "gnutls-serv") :value nil)
  SKIPPED  connect-to-tls-ipv4-wait  ((skip-unless (executable-find "gnutls-serv")) :form (executable-find "gnutls-serv") :value nil)
  SKIPPED  connect-to-tls-ipv6-nowait  ((skip-unless (executable-find "gnutls-serv")) :form (executable-find "gnutls-serv") :value nil)
  SKIPPED  echo-server-with-dns  "Can't test resolver for (system-name)"
  SKIPPED  echo-server-with-local-ipv6  ((skip-unless server) :form server :value nil)
  SKIPPED  make-ipv6-tcp-server-with-specified-port  ((skip-unless server) :form server :value nil)
  SKIPPED  make-ipv6-tcp-server-with-unspecified-port  ((skip-unless server) :form server :value nil)
  SKIPPED  open-gnutls-stream-new-api-default  ((skip-unless (executable-find "gnutls-serv")) :form (executable-find "gnutls-serv") :value nil)
  SKIPPED  open-gnutls-stream-new-api-nowait  ((skip-unless (executable-find "gnutls-serv")) :form (executable-find "gnutls-serv") :value nil)
  SKIPPED  open-gnutls-stream-new-api-wait  ((skip-unless (executable-find "gnutls-serv")) :form (executable-find "gnutls-serv") :value nil)
  SKIPPED  open-gnutls-stream-old-api-nowait  ((skip-unless (executable-find "gnutls-serv")) :form (executable-find "gnutls-serv") :value nil)
  SKIPPED  open-gnutls-stream-old-api-wait  ((skip-unless (executable-find "gnutls-serv")) :form (executable-find "gnutls-serv") :value nil)
  SKIPPED  open-network-stream-tls  ((skip-unless (executable-find "gnutls-serv")) :form (executable-find "gnutls-serv") :value nil)
  SKIPPED  open-network-stream-tls-nocert  ((skip-unless (executable-find "gnutls-serv")) :form (executable-find "gnutls-serv") :value nil)
  SKIPPED  open-network-stream-tls-nowait  ((skip-unless (executable-find "gnutls-serv")) :form (executable-find "gnutls-serv") :value nil)
  SKIPPED  open-network-stream-tls-wait  ((skip-unless (executable-find "gnutls-serv")) :form (executable-find "gnutls-serv") :value nil)
lisp/net/dbus-tests.log:
  SKIPPED  dbus-test01-basic-types  ((skip-unless dbus--test-enabled-session-bus) :form dbus--test-enabled-session-bus :value nil)
  SKIPPED  dbus-test01-compound-types  ((skip-unless dbus--test-enabled-session-bus) :form dbus--test-enabled-session-bus :value nil)
  SKIPPED  dbus-test01-type-conversion  ((skip-unless dbus--test-enabled-session-bus) :form dbus--test-enabled-session-bus :value nil)
  SKIPPED  dbus-test02-register-service-own-bus  ((skip-unless (dbus-ignore-errors (and bus pid (featurep 'dbusbind) (dbus-init-bus bus) (dbus-get-unique-name bus) (dbus-register-service bus dbus--test-service)))) :form (condition-case err (progn (and bus pid (featurep 'dbusbind) (dbus-init-bus bus) (dbus-get-unique-name bus) (dbus-register-service bus dbus--test-service))) (dbus-error (if dbus-debug (progn (signal ... ...))))) :value nil)
  SKIPPED  dbus-test02-register-service-session  ((skip-unless (and dbus--test-enabled-session-bus (dbus-register-service :session dbus--test-service))) :form (and dbus--test-enabled-session-bus (dbus-register-service :session dbus--test-service)) :value nil)
  SKIPPED  dbus-test02-register-service-system  ((skip-unless (and dbus--test-enabled-system-bus (dbus-register-service :system dbus--test-service))) :form (and dbus--test-enabled-system-bus (dbus-register-service :system dbus--test-service)) :value nil)
  SKIPPED  dbus-test03-peer-interface  ((skip-unless (and dbus--test-enabled-session-bus (dbus-register-service :session dbus--test-service) (not (dbus-ignore-errors (dbus-call-method :session dbus--test-service dbus-path-dbus dbus-interface-peer "GetMachineId" :timeout 100))))) :form (and dbus--test-enabled-session-bus (dbus-register-service :session dbus--test-service) (not (condition-case err (progn (dbus-call-method :session dbus--test-service dbus-path-dbus dbus-interface-peer "GetMachineId" :timeout 100)) (dbus-error (if dbus-debug ...))))) :value nil)
  SKIPPED  dbus-test04-call-method-timeout  ((skip-unless dbus--test-enabled-session-bus) :form dbus--test-enabled-session-bus :value nil)
  SKIPPED  dbus-test04-method-reentry  ((skip-unless dbus--test-enabled-session-bus) :form dbus--test-enabled-session-bus :value nil)
  SKIPPED  dbus-test04-register-method  ((skip-unless dbus--test-enabled-session-bus) :form dbus--test-enabled-session-bus :value nil)
  SKIPPED  dbus-test05-register-signal  ((skip-unless dbus--test-enabled-session-bus) :form dbus--test-enabled-session-bus :value nil)
  SKIPPED  dbus-test06-property-types  ((skip-unless dbus--test-enabled-session-bus) :form dbus--test-enabled-session-bus :value nil)
  SKIPPED  dbus-test06-register-property  ((skip-unless dbus--test-enabled-session-bus) :form dbus--test-enabled-session-bus :value nil)
  SKIPPED  dbus-test06-register-property-emits-signal  ((skip-unless dbus--test-enabled-session-bus) :form dbus--test-enabled-session-bus :value nil)
  SKIPPED  dbus-test06-register-property-several-paths  ((skip-unless dbus--test-enabled-session-bus) :form dbus--test-enabled-session-bus :value nil)
  SKIPPED  dbus-test07-introspection  ((skip-unless dbus--test-enabled-session-bus) :form dbus--test-enabled-session-bus :value nil)
  SKIPPED  dbus-test07-introspection-timeout  ((skip-unless dbus--test-enabled-session-bus) :form dbus--test-enabled-session-bus :value nil)
  SKIPPED  dbus-test08-register-monitor  ((skip-unless dbus--test-enabled-session-bus) :form dbus--test-enabled-session-bus :value nil)
  SKIPPED  dbus-test09-get-managed-objects  ((skip-unless dbus--test-enabled-session-bus) :form dbus--test-enabled-session-bus :value nil)
lisp/mouse-tests.log:
  SKIPPED  bug26816-mouse-frame-movement  ((skip-unless (display-graphic-p)) :form (display-graphic-p) :value nil)
lisp/kmacro-tests.log:
  SKIPPED  kmacro-tests-run-macro-command-recorded-in-macro  "Skipping due to Bug#24921 (an ERT bug)"
lisp/image/image-dired-tests.log:
  SKIPPED  image-dired-tests-get-exif-file-name  ((skip-unless (image-type-available-p 'jpeg)) :form (image-type-available-p jpeg) :value nil)
lisp/image-tests.log:
  SKIPPED  image-supported-file-p/built-in  ((skip-unless (display-images-p)) :form (display-images-p) :value nil)
  SKIPPED  image-type/from-filename  ((skip-unless (and (bound-and-true-p image-types) (bound-and-true-p image-load-path) (image-type-available-p 'jpeg))) :form (and (and (boundp 'image-types) image-types) (and (boundp 'image-load-path) image-load-path) (image-type-available-p 'jpeg)) :value nil)
lisp/image-file-tests.log:
  SKIPPED  insert-image-file  ((skip-unless (image-type-available-p 'png)) :form (image-type-available-p png) :value nil)
lisp/hl-line-tests.log:
  SKIPPED  hl-line-tests-sticky-across-frames  ((skip-unless (display-graphic-p)) :form (display-graphic-p) :value nil)
lisp/gnus/mml-sec-tests.log:
  SKIPPED  mml-secure-en-decrypt-1  ((skip-unless (test-conf)) :form (test-conf) :value nil)
  SKIPPED  mml-secure-en-decrypt-2  ((skip-unless (test-conf)) :form (test-conf) :value nil)
  SKIPPED  mml-secure-en-decrypt-3  ((skip-unless (test-conf)) :form (test-conf) :value nil)
  SKIPPED  mml-secure-en-decrypt-4  ((skip-unless (test-conf)) :form (test-conf) :value nil)
  SKIPPED  mml-secure-en-decrypt-passphrase-cache  ((skip-unless (test-conf)) :form (test-conf) :value nil)
  SKIPPED  mml-secure-en-decrypt-passphrase-no-cache-openpgp-todo  ((skip-unless (test-conf)) :form (test-conf) :value nil)
  SKIPPED  mml-secure-en-decrypt-passphrase-no-cache-smime-todo  ((skip-unless (test-conf)) :form (test-conf) :value nil)
  SKIPPED  mml-secure-find-usable-keys-1  ((skip-unless (test-conf)) :form (test-conf) :value nil)
  SKIPPED  mml-secure-find-usable-keys-2  ((skip-unless (test-conf)) :form (test-conf) :value nil)
  SKIPPED  mml-secure-key-checks  ((skip-unless (test-conf)) :form (test-conf) :value nil)
  SKIPPED  mml-secure-select-preferred-keys-1  ((skip-unless (test-conf)) :form (test-conf) :value nil)
  SKIPPED  mml-secure-select-preferred-keys-2  ((skip-unless (test-conf)) :form (test-conf) :value nil)
  SKIPPED  mml-secure-select-preferred-keys-3  ((skip-unless (test-conf)) :form (test-conf) :value nil)
  SKIPPED  mml-secure-select-preferred-keys-4  ((skip-unless (test-conf)) :form (test-conf) :value nil)
  SKIPPED  mml-secure-sign-verify-1  ((skip-unless (test-conf)) :form (test-conf) :value nil)
  SKIPPED  mml-secure-sign-verify-3  ((skip-unless (test-conf)) :form (test-conf) :value nil)
lisp/gnus/message-tests.log:
  SKIPPED  message-all-epg-keys-available-p  ((skip-unless (epg-check-configuration (epg-find-configuration 'OpenPGP))) :form (epg-check-configuration nil))
lisp/filenotify-tests.log:
  SKIPPED  file-notify-test10-sufficient-resources  ((skip-unless (string-equal (file-notify--test-library) "kqueue")) :form (string-equal "inotify" "kqueue") :value nil :explanation (arrays-of-different-length 7 6 "inotify" "kqueue" first-mismatch-at 0))
  SKIPPED  file-notify-test10-sufficient-resources-remote  ((skip-unless (string-equal (file-notify--test-library) "kqueue")) :form (string-equal "inotifywait" "kqueue") :value nil :explanation (arrays-of-different-length 11 6 "inotifywait" "kqueue" first-mismatch-at 0))
lisp/eshell/esh-proc-tests.log:
  SKIPPED  esh-proc-test/kill-pipeline  ((skip-unless (not (getenv "EMACS_EMBA_CI"))) :form (not "1") :value nil)
lisp/erc/erc-services-tests.log:
  SKIPPED  erc--auth-source-search--pass-announced  "Pass backend not yet supported"
  SKIPPED  erc--auth-source-search--pass-overrides  "Pass backend not yet supported"
  SKIPPED  erc--auth-source-search--pass-standard  "Pass backend not yet supported"
  SKIPPED  erc--auth-source-search--secrets-announced  ((skip-unless (bound-and-true-p secrets-enabled)) :form (and (boundp 'secrets-enabled) secrets-enabled) :value nil)
  SKIPPED  erc--auth-source-search--secrets-overrides  ((skip-unless (bound-and-true-p secrets-enabled)) :form (and (boundp 'secrets-enabled) secrets-enabled) :value nil)
  SKIPPED  erc--auth-source-search--secrets-standard  ((skip-unless (bound-and-true-p secrets-enabled)) :form (and (boundp 'secrets-enabled) secrets-enabled) :value nil)
lisp/epg-tests.log:
  SKIPPED  epg-decrypt-1  "No usable gpg config"
  SKIPPED  epg-import-1  "No usable gpg config"
  SKIPPED  epg-roundtrip-1  "No usable gpg config"
  SKIPPED  epg-roundtrip-2  "No usable gpg config"
  SKIPPED  epg-sign-verify-1  "No usable gpg config"
  SKIPPED  epg-sign-verify-2  "No usable gpg config"
  SKIPPED  epg-sign-verify-3  "No usable gpg config"
lisp/epg-config-tests.log:
  SKIPPED  epg-config-test-epg-find-configuration  ((skip-unless (executable-find "gpg2")) :form (executable-find "gpg2") :value nil)
  SKIPPED  epg-config-test-epg-required-version-p  ((skip-unless (executable-find "gpg2")) :form (executable-find "gpg2") :value nil)
lisp/emacs-lisp/timer-tests.log:
  SKIPPED  timer-tests-debug-timer-check  ((skip-unless (fboundp 'debug-timer-check)) :form (fboundp debug-timer-check) :value nil)
lisp/emacs-lisp/package-tests.log:
  SKIPPED  package-test-signed  ((skip-unless (ert-with-temp-directory homedir (let ((process-environment ...)) (require 'epg-config) (defvar epg-config--program-alist) (epg-find-configuration 'OpenPGP nil (let ... ... prog-alist))))) :form (let* ((coding-system-for-write nil) (temp-file (file-name-as-directory (make-temp-file "emacs-test-" t "-package" nil))) (homedir (file-name-as-directory temp-file))) (unwind-protect (progn (let (...) (require ...) (defvar epg-config--program-alist) (epg-find-configuration ... nil ...))) (condition-case nil (progn (delete-directory temp-file :recursive)) (error nil)))) :value nil)
  SKIPPED  package-test-update-archives-async  ((skip-unless (executable-find "python2")) :form (executable-find "python2") :value nil)
lisp/emacs-lisp/multisession-tests.log:
  SKIPPED  multi-test-files-busy  ((skip-unless (sqlite-available-p)) :form (sqlite-available-p) :value nil)
  SKIPPED  multi-test-sqlite-busy  ((skip-unless (sqlite-available-p)) :form (sqlite-available-p) :value nil)
  SKIPPED  multi-test-sqlite-simple  ((skip-unless (sqlite-available-p)) :form (sqlite-available-p) :value nil)
lisp/emacs-lisp/eieio-tests/eieio-tests.log:
  SKIPPED  eieio-test-01-mix-alloc-initarg  ((skip-unless (and (message "foo") (string= "foo" (current-message)))) :form (and (message "foo") (string= "foo" (current-message))) :value nil)
lisp/emacs-lisp/bytecomp-tests.log:
  SKIPPED  bytecomp-tests--dest-mountpoint  ((skip-unless bwrap) :form bwrap :value nil)
lisp/dnd-tests.log:
  SKIPPED  dnd-tests-open-remote-url  ((skip-unless (executable-find "ftp")) :form (executable-find "ftp") :value nil)
lisp/cedet/semantic-utest.log:
  SKIPPED  semantic-utest-Csharp  ((skip-unless (featurep 'csharp-mode)) :form (featurep csharp-mode) :value nil)
  SKIPPED  semantic-utest-PHP  ((skip-unless (featurep 'php-mode)) :form (featurep php-mode) :value nil)
  SKIPPED  semantic-utest-Scheme  ((skip-unless nil) :form nil :value nil)
lisp/auth-source-tests.log:
  SKIPPED  auth-source-test-secrets-create-secret  ((skip-unless secrets-enabled) :form secrets-enabled :value nil)
lisp/arc-mode-tests.log:
  SKIPPED  arc-mode-test-zip-extract-gz  ((skip-unless (and archive-zip-extract (executable-find (car archive-zip-extract)))) :form (and archive-zip-extract (executable-find (car archive-zip-extract))) :value nil)
lisp/net/tramp-tests.log:
  SKIPPED  tramp-test10-write-region-other-file-name-handler  ((skip-unless (boundp 'tar-goto-file)) :form (boundp tar-goto-file) :value nil)
  SKIPPED  tramp-test25-file-selinux  ((skip-unless (not (equal (file-selinux-context ert-remote-temporary-file-directory) '(nil nil nil nil)))) :form (not t) :value nil)
  SKIPPED  tramp-test29-start-file-process-direct-async  ((skip-unless (tramp-direct-async-process-p)) :form (tramp-direct-async-process-p) :value nil)
  SKIPPED  tramp-test30-make-process-direct-async  ((skip-unless (tramp-direct-async-process-p)) :form (tramp-direct-async-process-p) :value nil)
  SKIPPED  tramp-test31-list-system-processes  ((skip-unless (consp (list-system-processes))) :form (consp nil) :value nil)
  SKIPPED  tramp-test31-process-attributes  ((skip-unless (consp (list-system-processes))) :form (consp nil) :value nil)
  SKIPPED  tramp-test33-environment-variables-direct-async  ((skip-unless (tramp-direct-async-process-p)) :form (tramp-direct-async-process-p) :value nil)
  SKIPPED  tramp-test45-dired-compress-dir  ((skip-unless (not (tramp--test-emacs29-p))) :form (not t) :value nil)
  SKIPPED  tramp-test45-dired-compress-file  ((skip-unless (not (tramp--test-emacs29-p))) :form (not t) :value nil)
  SKIPPED  tramp-test46-read-password  ((skip-unless (string-empty-p (let ((shell-file-name "sh")) (shell-command-to-string "read -s -p Password: pass")))) :form (string-empty-p "/bin/sh: 1: read: Illegal option -s\n") :value nil)
make[2]: *** [check-doit] Error 2
make[1]: *** [check-expensive] Error 2
make: *** [check-expensive] Error 2
Makefile:333: recipe for target 'check-doit' failed
make[2]: Leaving directory '/checkout/test'
Makefile:308: recipe for target 'check-expensive' failed
make[1]: Leaving directory '/checkout/test'
Makefile:1030: recipe for target 'check-expensive' failed
section_end:1663176232:step_script[0Ksection_start:1663176232:after_script[0K[0K[36;1mRunning after_script[0;m[0;m
[32;1mRunning after script...[0;m
[32;1m$ test -n "$(docker ps -aq -f name=${test_name})" && docker cp ${test_name}:checkout/test ${test_name}[0;m
[32;1m$ test -n "$(docker ps -aq -f name=${test_name})" && docker rm ${test_name}[0;m
test-all-inotify-6a22f7e5
[32;1m$ find ${test_name} ! \( -name "*.log" -o -name ${EMACS_TEST_JUNIT_REPORT} \) -type f -delete[0;m
[32;1m$ find ${test_name} -type d -depth -exec rmdir {} + 2>/dev/null[0;m
section_end:1663176251:after_script[0Ksection_start:1663176251:upload_artifacts_on_failure[0K[0K[36;1mUploading artifacts for failed job[0;m[0;m
[32;1mUploading artifacts...[0;m
test-all-inotify-6a22f7e5/: found 480 matching files and directories[0;m 
Uploading artifacts as "archive" to coordinator... ok[0;m  id[0;m=53826 responseStatus[0;m=201 Created token[0;m=zGfp6AQR
[32;1mUploading artifacts...[0;m
test-all-inotify-6a22f7e5/junit-test-report.xml: found 1 matching files and directories[0;m 
Uploading artifacts as "junit" to coordinator... ok[0;m  id[0;m=53826 responseStatus[0;m=201 Created token[0;m=zGfp6AQR
section_end:1663176257:upload_artifacts_on_failure[0Ksection_start:1663176257:cleanup_file_variables[0K[0K[36;1mCleaning up file based variables[0;m[0;m
section_end:1663176258:cleanup_file_variables[0K[31;1mERROR: Job failed: exit code 2[0;m
