Ran 34 tests, 33 results as expected, 0 unexpected, 1 skipped (2022-09-19 03:02:48+0000, 1.017316 sec)

1 skipped results:
  SKIPPED  module-darwin-secondary-suffix  ((skip-unless (eq system-type 'darwin)) :form (eq gnu/linux darwin) :value nil)

  ELC+ELN  src/emacs-tests.elc
  GEN      src/emacs-tests.log
  ELC+ELN  src/eval-tests.elc
  GEN      src/eval-tests.log
  ELC+ELN  src/fileio-tests.elc
  GEN      src/fileio-tests.log
  ELC+ELN  src/filelock-tests.elc
  GEN      src/filelock-tests.log
  ELC+ELN  src/floatfns-tests.elc
  GEN      src/floatfns-tests.log
  ELC+ELN  src/fns-tests.elc
  GEN      src/fns-tests.log
  ELC+ELN  src/font-tests.elc
  GEN      src/font-tests.log
  ELC+ELN  src/image-tests.elc

In end of data:
src/image-tests.el:52:18: Warning: the function `image-metadata' is not known to be defined.
src/image-tests.el:48:18: Warning: the function `image-mask-p' is not known to be defined.
src/image-tests.el:44:18: Warning: the function `image-size' is not known to be defined.
  GEN      src/image-tests.log
  ELC+ELN  src/indent-tests.elc
  GEN      src/indent-tests.log
  ELC+ELN  src/inotify-tests.elc
  GEN      src/inotify-tests.log
  ELC+ELN  src/json-tests.elc
  GEN      src/json-tests.log
  ELC+ELN  src/keyboard-tests.elc
  GEN      src/keyboard-tests.log
  ELC+ELN  src/keymap-tests.elc
  GEN      src/keymap-tests.log
  ELC+ELN  src/lcms-tests.elc
  GEN      src/lcms-tests.log
  ELC+ELN  src/lread-tests.elc
  GEN      src/lread-tests.log
  ELC+ELN  src/marker-tests.elc
  GEN      src/marker-tests.log
  ELC+ELN  src/minibuf-tests.elc
  GEN      src/minibuf-tests.log
  ELC+ELN  src/print-tests.elc
  GEN      src/print-tests.log
  ELC+ELN  src/process-tests.elc
  GEN      src/process-tests.log
  ELC+ELN  src/regex-emacs-tests.elc
  GEN      src/regex-emacs-tests.log
  ELC+ELN  src/search-tests.elc
  GEN      src/search-tests.log
  ELC+ELN  src/sqlite-tests.elc
  GEN      src/sqlite-tests.log
  ELC+ELN  src/syntax-tests.elc
  GEN      src/syntax-tests.log
  ELC+ELN  src/textprop-tests.elc
  GEN      src/textprop-tests.log
  ELC+ELN  src/thread-tests.elc
  GEN      src/thread-tests.log
  ELC+ELN  src/timefns-tests.elc
  GEN      src/timefns-tests.log
  ELC+ELN  src/undo-tests.elc
  GEN      src/undo-tests.log
  ELC+ELN  src/xdisp-tests.elc
  GEN      src/xdisp-tests.log
  ELC+ELN  src/xfaces-tests.elc
  GEN      src/xfaces-tests.log
  ELC+ELN  src/xml-tests.elc
  GEN      src/xml-tests.log
make[2]: Leaving directory '/checkout/test'
Makefile:333: recipe for target 'check-doit' failed
make[1]: [check-doit] Error 2 (ignored)

SUMMARY OF TEST RESULTS
-----------------------
Files examined: 448
Ran 6800 tests, 1 failed to run, 6552 results as expected, 0 unexpected, 248 skipped
1 files did not finish:
  misc/test-custom-opts.log
Contents of unfinished file misc/test-custom-opts.log:
-----
Running 1 tests (2022-09-19 02:54:03+0000, selector `(not (tag :unstable))')
Loading /checkout/admin/cus-test.el (source)...
Running cus-test-load-libs
Finding files...
Finding files...done
Package iswitchb is deprecated
ad-handle-definition: `xref-find-definitions' got redefined
ad-handle-definition: `visit-tags-table' got redefined
ad-handle-definition: `xref-find-definitions' got redefined
ad-handle-definition: `pop-to-mark-command' got redefined
ad-handle-definition: `exchange-point-and-mark' got redefined
ad-handle-definition: `pop-global-mark' got redefined
Error for term/ns-win.el: (error emacs: Loading ns-win.el but not compiled for GNUstep/macOS)
Error for term/pgtk-win.el: (error emacs: Loading pgtk-win.el but not compiled with PGTK.)
Error for term/x-win.el: (error emacs: Loading x-win.el but not compiled for X)
776 libraries loaded successfully
The following load problems appeared:
(term/x-win.el error emacs: Loading x-win.el but not compiled for X)
(term/pgtk-win.el error emacs: Loading pgtk-win.el but not compiled with PGTK.)
(term/ns-win.el error emacs: Loading ns-win.el but not compiled for GNUstep/macOS)
Running cus-test-load-custom-loads
Loading display-fill-column-indicator (native compiled elisp)...
Loading subword (native compiled elisp)...
Loading t-mouse (native compiled elisp)...
Loading cl-font-lock (native compiled elisp)...
Running cus-test-apropos
Cus Test running...1 route-program
Cus Test running...2 pong-bat-color
Cus Test running...3 erc-nickserv-passwords
Cus Test running...4 find-sibling-rules
Cus Test running...5 cal-tex-daily-end
Cus Test running...6 eshell-mv-interactive-query
Cus Test running...7 url-nfs-automounter-directory-spec
Cus Test running...8 compilation-disable-input
Cus Test running...9 hs-hide-comments-when-hiding-all
Cus Test running...10 vhdl-compose-configuration-create-file
Cus Test running...11 erc-stamp-mode
Cus Test running...12 erc-networks-mode
Cus Test running...13 message-expand-name-databases
Cus Test running...14 spam-blacklist
Cus Test running...15 browse-url-gnome-moz-arguments
Cus Test running...16 erc-track-showcount
Cus Test running...17 spam-blacklist-ignored-regexes
Cus Test running...18 allout-post-undo-hook
Cus Test running...19 timeclock-get-reason-function
Cus Test running...20 browse-url-generic-args
Cus Test running...21 org-agenda-menu-show-matcher
Cus Test running...22 nnmail-message-id-cache-file
Cus Test running...23 ogonek-prefix-from-encoding
Cus Test running...24 double-mode-hook
Cus Test running...25 indicate-buffer-boundaries
Cus Test running...26 gnus-score-expiry-days
Cus Test running...27 icon-continued-brace-offset
Cus Test running...28 gnus-article-update-date-headers
Cus Test running...29 transient-force-fixed-pitch
Cus Test running...30 ldap-default-port
Cus Test running...31 tcl-command-switches
lisp/hl-line-tests.log:
  SKIPPED  hl-line-tests-sticky-across-frames  ((skip-unless (display-graphic-p)) :form (display-graphic-p) :value nil)
lisp/gnus/mml-sec-tests.log:
  SKIPPED  mml-secure-en-decrypt-1  ((skip-unless (test-conf)) :form (test-conf) :value nil)
  SKIPPED  mml-secure-en-decrypt-2  ((skip-unless (test-conf)) :form (test-conf) :value nil)
  SKIPPED  mml-secure-en-decrypt-3  ((skip-unless (test-conf)) :form (test-conf) :value nil)
  SKIPPED  mml-secure-en-decrypt-4  ((skip-unless (test-conf)) :form (test-conf) :value nil)
  SKIPPED  mml-secure-en-decrypt-passphrase-cache  ((skip-unless (test-conf)) :form (test-conf) :value nil)
  SKIPPED  mml-secure-en-decrypt-passphrase-no-cache-openpgp-todo  ((skip-unless (test-conf)) :form (test-conf) :value nil)
  SKIPPED  mml-secure-en-decrypt-passphrase-no-cache-smime-todo  ((skip-unless (test-conf)) :form (test-conf) :value nil)
  SKIPPED  mml-secure-find-usable-keys-1  ((skip-unless (test-conf)) :form (test-conf) :value nil)
  SKIPPED  mml-secure-find-usable-keys-2  ((skip-unless (test-conf)) :form (test-conf) :value nil)
  SKIPPED  mml-secure-key-checks  ((skip-unless (test-conf)) :form (test-conf) :value nil)
  SKIPPED  mml-secure-select-preferred-keys-1  ((skip-unless (test-conf)) :form (test-conf) :value nil)
  SKIPPED  mml-secure-select-preferred-keys-2  ((skip-unless (test-conf)) :form (test-conf) :value nil)
  SKIPPED  mml-secure-select-preferred-keys-3  ((skip-unless (test-conf)) :form (test-conf) :value nil)
  SKIPPED  mml-secure-select-preferred-keys-4  ((skip-unless (test-conf)) :form (test-conf) :value nil)
  SKIPPED  mml-secure-sign-verify-1  ((skip-unless (test-conf)) :form (test-conf) :value nil)
  SKIPPED  mml-secure-sign-verify-3  ((skip-unless (test-conf)) :form (test-conf) :value nil)
lisp/gnus/message-tests.log:
  SKIPPED  message-all-epg-keys-available-p  ((skip-unless (epg-check-configuration (epg-find-configuration 'OpenPGP))) :form (epg-check-configuration nil))
lisp/filenotify-tests.log:
  SKIPPED  file-notify-test00-availability-remote  ((skip-unless (file-notify--test-remote-enabled)) :form (file-notify--test-remote-enabled) :value nil)
  SKIPPED  file-notify-test01-add-watch-remote  ((skip-unless (file-notify--test-remote-enabled)) :form (file-notify--test-remote-enabled) :value nil)
  SKIPPED  file-notify-test02-rm-watch-remote  ((skip-unless (file-notify--test-remote-enabled)) :form (file-notify--test-remote-enabled) :value nil)
  SKIPPED  file-notify-test04-autorevert-remote  ((skip-unless (file-notify--test-remote-enabled)) :form (file-notify--test-remote-enabled) :value nil)
  SKIPPED  file-notify-test05-file-validity-remote  ((skip-unless (file-notify--test-remote-enabled)) :form (file-notify--test-remote-enabled) :value nil)
  SKIPPED  file-notify-test06-dir-validity-remote  ((skip-unless (file-notify--test-remote-enabled)) :form (file-notify--test-remote-enabled) :value nil)
  SKIPPED  file-notify-test08-backup-remote  ((skip-unless (file-notify--test-remote-enabled)) :form (file-notify--test-remote-enabled) :value nil)
  SKIPPED  file-notify-test10-sufficient-resources  ((skip-unless (string-equal (file-notify--test-library) "kqueue")) :form (string-equal "inotify" "kqueue") :value nil :explanation (arrays-of-different-length 7 6 "inotify" "kqueue" first-mismatch-at 0))
  SKIPPED  file-notify-test10-sufficient-resources-remote  ((skip-unless (file-notify--test-remote-enabled)) :form (file-notify--test-remote-enabled) :value nil)
  SKIPPED  file-notify-test11-symlinks-remote  ((skip-unless (file-notify--test-remote-enabled)) :form (file-notify--test-remote-enabled) :value nil)
lisp/eshell/esh-proc-tests.log:
  SKIPPED  esh-proc-test/kill-pipeline  ((skip-unless (not (getenv "EMACS_EMBA_CI"))) :form (not "1") :value nil)
lisp/erc/erc-services-tests.log:
  SKIPPED  erc--auth-source-search--pass-announced  "Pass backend not yet supported"
  SKIPPED  erc--auth-source-search--pass-overrides  "Pass backend not yet supported"
  SKIPPED  erc--auth-source-search--pass-standard  "Pass backend not yet supported"
  SKIPPED  erc--auth-source-search--secrets-announced  ((skip-unless (bound-and-true-p secrets-enabled)) :form (and (boundp 'secrets-enabled) secrets-enabled) :value nil)
  SKIPPED  erc--auth-source-search--secrets-overrides  ((skip-unless (bound-and-true-p secrets-enabled)) :form (and (boundp 'secrets-enabled) secrets-enabled) :value nil)
  SKIPPED  erc--auth-source-search--secrets-standard  ((skip-unless (bound-and-true-p secrets-enabled)) :form (and (boundp 'secrets-enabled) secrets-enabled) :value nil)
lisp/epg-tests.log:
  SKIPPED  epg-decrypt-1  "No usable gpg config"
  SKIPPED  epg-import-1  "No usable gpg config"
  SKIPPED  epg-roundtrip-1  "No usable gpg config"
  SKIPPED  epg-roundtrip-2  "No usable gpg config"
  SKIPPED  epg-sign-verify-1  "No usable gpg config"
  SKIPPED  epg-sign-verify-2  "No usable gpg config"
  SKIPPED  epg-sign-verify-3  "No usable gpg config"
lisp/epg-config-tests.log:
  SKIPPED  epg-config-test-epg-find-configuration  ((skip-unless (executable-find "gpg2")) :form (executable-find "gpg2") :value nil)
  SKIPPED  epg-config-test-epg-required-version-p  ((skip-unless (executable-find "gpg2")) :form (executable-find "gpg2") :value nil)
lisp/emacs-lisp/timer-tests.log:
  SKIPPED  timer-tests-debug-timer-check  ((skip-unless (fboundp 'debug-timer-check)) :form (fboundp debug-timer-check) :value nil)
lisp/emacs-lisp/package-tests.log:
  SKIPPED  package-test-signed  ((skip-unless (ert-with-temp-directory homedir (let ((process-environment ...)) (require 'epg-config) (defvar epg-config--program-alist) (epg-find-configuration 'OpenPGP nil (let ... ... prog-alist))))) :form (let* ((coding-system-for-write nil) (temp-file (file-name-as-directory (make-temp-file "emacs-test-" t "-package" nil))) (homedir (file-name-as-directory temp-file))) (unwind-protect (progn (let (...) (require ...) (defvar epg-config--program-alist) (epg-find-configuration ... nil ...))) (condition-case nil (progn (delete-directory temp-file :recursive)) (error nil)))) :value nil)
  SKIPPED  package-test-update-archives-async  ((skip-unless (executable-find "python2")) :form (executable-find "python2") :value nil)
lisp/emacs-lisp/multisession-tests.log:
  SKIPPED  multi-test-files-busy  ((skip-unless (sqlite-available-p)) :form (sqlite-available-p) :value nil)
  SKIPPED  multi-test-sqlite-busy  ((skip-unless (sqlite-available-p)) :form (sqlite-available-p) :value nil)
  SKIPPED  multi-test-sqlite-simple  ((skip-unless (sqlite-available-p)) :form (sqlite-available-p) :value nil)
lisp/emacs-lisp/eieio-tests/eieio-tests.log:
  SKIPPED  eieio-test-01-mix-alloc-initarg  ((skip-unless (and (message "foo") (string= "foo" (current-message)))) :form (and (message "foo") (string= "foo" (current-message))) :value nil)
lisp/emacs-lisp/bytecomp-tests.log:
  SKIPPED  bytecomp-tests--dest-mountpoint  ((skip-unless bwrap) :form bwrap :value nil)
lisp/dnd-tests.log:
  SKIPPED  dnd-tests-open-remote-url  ((skip-unless (executable-find "ftp")) :form (executable-find "ftp") :value nil)
lisp/cedet/semantic-utest.log:
  SKIPPED  semantic-utest-Csharp  ((skip-unless (featurep 'csharp-mode)) :form (featurep csharp-mode) :value nil)
  SKIPPED  semantic-utest-PHP  ((skip-unless (featurep 'php-mode)) :form (featurep php-mode) :value nil)
  SKIPPED  semantic-utest-Scheme  ((skip-unless nil) :form nil :value nil)
lisp/auth-source-tests.log:
  SKIPPED  auth-source-test-secrets-create-secret  ((skip-unless secrets-enabled) :form secrets-enabled :value nil)
lisp/arc-mode-tests.log:
  SKIPPED  arc-mode-test-zip-extract-gz  ((skip-unless (and archive-zip-extract (executable-find (car archive-zip-extract)))) :form (and archive-zip-extract (executable-find (car archive-zip-extract))) :value nil)
lisp/net/tramp-tests.log:
  SKIPPED  tramp-test10-write-region-other-file-name-handler  ((skip-unless (boundp 'tar-goto-file)) :form (boundp tar-goto-file) :value nil)
  SKIPPED  tramp-test25-file-selinux  ((skip-unless (not (equal (file-selinux-context ert-remote-temporary-file-directory) '(nil nil nil nil)))) :form (not t) :value nil)
  SKIPPED  tramp-test29-start-file-process-direct-async  ((skip-unless (tramp-direct-async-process-p)) :form (tramp-direct-async-process-p) :value nil)
  SKIPPED  tramp-test30-make-process-direct-async  ((skip-unless (tramp-direct-async-process-p)) :form (tramp-direct-async-process-p) :value nil)
  SKIPPED  tramp-test31-list-system-processes  ((skip-unless (consp (list-system-processes))) :form (consp nil) :value nil)
  SKIPPED  tramp-test31-process-attributes  ((skip-unless (consp (list-system-processes))) :form (consp nil) :value nil)
  SKIPPED  tramp-test33-environment-variables-direct-async  ((skip-unless (tramp-direct-async-process-p)) :form (tramp-direct-async-process-p) :value nil)
  SKIPPED  tramp-test45-dired-compress-dir  ((skip-unless (not (tramp--test-emacs29-p))) :form (not t) :value nil)
  SKIPPED  tramp-test45-dired-compress-file  ((skip-unless (not (tramp--test-emacs29-p))) :form (not t) :value nil)
  SKIPPED  tramp-test46-read-password  ((skip-unless (string-empty-p (let ((shell-file-name "sh")) (shell-command-to-string "read -s -p Password: pass")))) :form (string-empty-p "/bin/sh: 1: read: Illegal option -s\n") :value nil)
make[1]: *** [check-doit] Error 2
make: *** [check] Error 2
Makefile:333: recipe for target 'check-doit' failed
make[1]: Leaving directory '/checkout/test'
Makefile:303: recipe for target 'check' failed
make: Leaving directory '/checkout/test'
section_end:1663556617:step_script[0Ksection_start:1663556617:after_script[0K[0K[36;1mRunning after_script[0;m[0;m
[32;1mRunning after script...[0;m
[32;1m$ test -n "$(docker ps -aq -f name=${test_name})" && docker cp ${test_name}:checkout/test ${test_name}[0;m
[32;1m$ test -n "$(docker ps -aq -f name=${test_name})" && docker rm ${test_name}[0;m
test-native-comp-speed0-7c8a1319
[32;1m$ find ${test_name} ! \( -name "*.log" -o -name ${EMACS_TEST_JUNIT_REPORT} \) -type f -delete[0;m
[32;1m$ find ${test_name} -type d -depth -exec rmdir {} + 2>/dev/null[0;m
section_end:1663556625:after_script[0Ksection_start:1663556625:upload_artifacts_on_failure[0K[0K[36;1mUploading artifacts for failed job[0;m[0;m
[32;1mUploading artifacts...[0;m
test-native-comp-speed0-7c8a1319/: found 482 matching files and directories[0;m 
Uploading artifacts as "archive" to coordinator... ok[0;m  id[0;m=54123 responseStatus[0;m=201 Created token[0;m=txvvcMEh
[32;1mUploading artifacts...[0;m
test-native-comp-speed0-7c8a1319/junit-test-report.xml: found 1 matching files and directories[0;m 
Uploading artifacts as "junit" to coordinator... ok[0;m  id[0;m=54123 responseStatus[0;m=201 Created token[0;m=txvvcMEh
section_end:1663556629:upload_artifacts_on_failure[0Ksection_start:1663556629:cleanup_file_variables[0K[0K[36;1mCleaning up file based variables[0;m[0;m
section_end:1663556630:cleanup_file_variables[0K[31;1mERROR: Job failed: exit code 2[0;m
